uvm_tb/uart_test.vcd
$version Generated by VerilatedVcd $end
$timescale 1ps $end
 $scope module uvm_pkg $end
  $var wire 32 9 UVM_HDL_MAX_WIDTH [31:0] $end
  $var wire 32 ) uvm_re_match__Vstatic__e [31:0] $end
  $var wire 32 * uvm_re_match__Vstatic__es [31:0] $end
  $var wire 32 + uvm_re_match__Vstatic__s [31:0] $end
  $var wire 32 , uvm_re_match__Vstatic__ss [31:0] $end
  $var wire 32 : UVM_STREAMBITS [31:0] $end
  $var wire 32 ; UVM_FIELD_FLAG_RESERVED_BITS [31:0] $end
  $var wire 32 < UVM_RADIX [31:0] $end
  $var wire 28 = UVM_RECURSION [27:0] $end
  $var wire 28 > UVM_MACRO_NUMFLAGS [27:0] $end
  $var wire 28 ? UVM_DEFAULT [27:0] $end
  $var wire 28 @ UVM_ALL_ON [27:0] $end
  $var wire 28 @ UVM_FLAGS_ON [27:0] $end
  $var wire 28 A UVM_FLAGS_OFF [27:0] $end
  $var wire 28 B UVM_COPY [27:0] $end
  $var wire 28 C UVM_NOCOPY [27:0] $end
  $var wire 28 D UVM_COMPARE [27:0] $end
  $var wire 28 E UVM_NOCOMPARE [27:0] $end
  $var wire 28 F UVM_PRINT [27:0] $end
  $var wire 28 G UVM_NOPRINT [27:0] $end
  $var wire 28 H UVM_RECORD [27:0] $end
  $var wire 28 I UVM_NORECORD [27:0] $end
  $var wire 28 J UVM_PACK [27:0] $end
  $var wire 28 K UVM_NOPACK [27:0] $end
  $var wire 28 L UVM_UNPACK [27:0] $end
  $var wire 28 K UVM_NOUNPACK [27:0] $end
  $var wire 28 M UVM_SET [27:0] $end
  $var wire 28 N UVM_NOSET [27:0] $end
  $var wire 28 O UVM_NODEFPRINT [27:0] $end
  $var wire 28 P UVM_MACRO_EXTRAS [27:0] $end
  $var wire 28 Q UVM_FLAGS [27:0] $end
  $var wire 28 R UVM_CHECK_FIELDS [27:0] $end
  $var wire 28 S UVM_END_DATA_EXTRA [27:0] $end
  $var wire 28 T UVM_START_FUNCS [27:0] $end
  $var wire 28 U UVM_END_FUNCS [27:0] $end
  $var wire 32 V UVM_STDIN [31:0] $end
  $var wire 32 W UVM_STDOUT [31:0] $end
  $var wire 32 X UVM_STDERR [31:0] $end
  $var wire 32 - m_uvm_core_state [31:0] $end
  $var wire 32 Y UVM_CORE_POST_INIT [31:0] $end
  $var wire 32 # uvm_global_random_seed [31:0] $end
  $var wire 8 . uvm_instance_scope__Vstatic__c [7:0] $end
  $var wire 32 / uvm_instance_scope__Vstatic__pos [31:0] $end
  $var wire 32 Z UVM_STR_CRC_POLYNOMIAL [31:0] $end
  $var wire 1 0 uvm_oneway_hash__Vstatic__msb $end
  $var wire 8 1 uvm_oneway_hash__Vstatic__current_byte [7:0] $end
  $var wire 32 2 uvm_oneway_hash__Vstatic__crc1 [31:0] $end
  $var wire 8 $ uvm_leaf_scope__Vstatic__bracket_match [7:0] $end
  $var wire 32 % uvm_leaf_scope__Vstatic__pos [31:0] $end
  $var wire 32 & uvm_leaf_scope__Vstatic__bmatches [31:0] $end
  $var wire 32 [ uvm_get_array_index_int__Vstatic__i [31:0] $end
  $var wire 32 \ uvm_get_array_index_string__Vstatic__i [31:0] $end
  $var wire 32 ] UVM_LINE_WIDTH [31:0] $end
  $var wire 32 ] UVM_NUM_LINES [31:0] $end
  $var wire 32 ^ UVM_SMALL_STRING [31:0] $end
  $var wire 32 _ UVM_LARGE_STRING [31:0] $end
  $var wire 32 3 uvm_wait_for_nba_region__Vstatic__next_nba [31:0] $end
  $var wire 32 ` UVM_UNBOUNDED_CONNECTIONS [31:0] $end
 $upscope $end
 $scope module uart_tb_top $end
  $var wire 1 ' clk $end
  $var wire 1 ( rst_n $end
  $scope module uart_if_inst $end
   $var wire 1 4 clk $end
   $var wire 1 ( rst_n $end
   $var wire 1 5 stx $end
   $var wire 1 6 srx $end
   $var wire 1 7 rts $end
   $var wire 1 a cts $end
   $var wire 1 8 dtr $end
   $var wire 1 b dsr $end
   $var wire 1 c ri $end
   $var wire 1 d dcd $end
  $upscope $end
 $upscope $end
$enddefinitions $end


#0
b01001110010101010100101010111110 #
b00000000 $
b00000000000000000000000000000000 %
b00000000000000000000000000000000 &
1'
0(
b00000000000000000000000000000000 )
b00000000000000000000000000000000 *
b00000000000000000000000000000000 +
b00000000000000000000000000000000 ,
b00000000000000000000000000000101 -
b00101110 .
b00000000000000000000000000000111 /
00
b01101101 1
b11111101111011111100100110110100 2
b00000000000000000000000000100100 3
14
05
06
07
08
b00000000000000000000010000000000 9
b00000000000000000001000000000000 :
b00000000000000000000000000011100 ;
b00001111000000000000000000000000 <
b0000000001110000000000000000 =
b0000000000000000000000010011 >
b0000000000000000010101010101 ?
b0000000000000000000101010101 @
b0000000000000000000000000000 A
b0000000000000000000000000001 B
b0000000000000000000000000010 C
b0000000000000000000000000100 D
b0000000000000000000000001000 E
b0000000000000000000000010000 F
b0000000000000000000000100000 G
b0000000000000000000001000000 H
b0000000000000000000010000000 I
b0000000000000000000100000000 J
b0000000000000000001000000000 K
b0000000000000000010000000000 L
b0000000000000000100000000000 M
b0000000000000001000000000000 N
b0000000000001000000000000000 O
b0000000010000000000000000000 P
b0000000010000000000000000001 Q
b0000000010000000000000000010 R
b0000000010000000000000000011 S
b0000000010000000000000000100 T
b0000000010000000000000000101 U
b10000000000000000000000000000000 V
b10000000000000000000000000000001 W
b10000000000000000000000000000010 X
b00000000000000000000000000000011 Y
b00000100110000010001110110110110 Z
b00000000000000000000000000000000 [
b00000000000000000000000000000000 \
b00000000000000000000000001111000 ]
b00000000000000000000001110111111 ^
b00000000000000011100000111111111 _
b11111111111111111111111111111111 `
0a
0b
0c
0d
#1
15
16
17
18
#5
0'
04
#10
1'
14
#15
0'
04
#20
1'
14
#25
0'
04
#30
1'
14
#35
0'
04
#40
1'
14
#45
0'
04
#50
1'
14
05
#55
0'
04
#60
1'
14
#65
0'
04
#70
1'
14
#75
0'
04
#80
1'
14
#85
0'
04
#90
1'
14
#95
0'
04
#100
1'
1(
14
#105
0'
04
#110
1'
14
#115
0'
04
#120
1'
14
#125
0'
04
#130
1'
14
#135
0'
04
#140
1'
14
#145
0'
04
#150
1'
14
#155
0'
04
#160
1'
14
#165
0'
04
#170
1'
14
#175
0'
04
#180
1'
14
#185
0'
04
#190
1'
14
#195
0'
04
#200
1'
14
#205
0'
04
#210
1'
14
15
#215
0'
04
#220
1'
14
#225
0'
04
#230
1'
14
#235
0'
04
#240
1'
14
#245
0'
04
#250
1'
14
#255
0'
04
#260
1'
14
#265
0'
04
#270
1'
14
#275
0'
04
#280
1'
14
#285
0'
04
#290
1'
14
#295
0'
04
#300
1'
14
#305
0'
04
#310
1'
14
#315
0'
04
#320
1'
14
#325
0'
04
#330
1'
14
#335
0'
04
#340
1'
14
#345
0'
04
#350
1'
14
#355
0'
04
#360
1'
14
#365
0'
04
#370
1'
14
#375
0'
04
#380
1'
14
#385
0'
04
#390
1'
14
#395
0'
04
#400
1'
14
#405
0'
04
#410
1'
14
#415
0'
04
#420
1'
14
#425
0'
04
#430
1'
14
#435
0'
04
#440
1'
14
#445
0'
04
#450
1'
14
#455
0'
04
#460
1'
14
#465
0'
04
#470
1'
14
#475
0'
04
#480
1'
14
#485
0'
04
#490
1'
14
#495
0'
04
#500
1'
14
#505
0'
04
#510
1'
14
#515
0'
04
#520
1'
14
#525
0'
04
#530
1'
14
#535
0'
04
#540
1'
14
#545
0'
04
#550
1'
14
#555
0'
04
#560
1'
14
#565
0'
04
#570
1'
14
#575
0'
04
#580
1'
14
#585
0'
04
#590
1'
14
#595
0'
04
#600
1'
14
#605
0'
04
#610
1'
14
#615
0'
04
#620
1'
14
#625
0'
04
#630
1'
14
#635
0'
04
#640
1'
14
#645
0'
04
#650
1'
14
#655
0'
04
#660
1'
14
#665
0'
04
#670
1'
14
#675
0'
04
#680
1'
14
#685
0'
04
#690
1'
14
05
#695
0'
04
#700
1'
14
#705
0'
04
#710
1'
14
#715
0'
04
#720
1'
14
#725
0'
04
#730
1'
14
#735
0'
04
#740
1'
14
#745
0'
04
#750
1'
14
#755
0'
04
#760
1'
14
#765
0'
04
#770
1'
14
#775
0'
04
#780
1'
14
#785
0'
04
#790
1'
14
#795
0'
04
#800
1'
14
#805
0'
04
#810
1'
14
#815
0'
04
#820
1'
14
#825
0'
04
#830
1'
14
#835
0'
04
#840
1'
14
#845
0'
04
#850
1'
14
15
#855
0'
04
#860
1'
14
#865
0'
04
#870
1'
14
#875
0'
04
#880
1'
14
#885
0'
04
#890
1'
14
#895
0'
04
#900
1'
14
#905
0'
04
#910
1'
14
#915
0'
04
#920
1'
14
#925
0'
04
#930
1'
14
#935
0'
04
#940
1'
14
#945
0'
04
#950
1'
14
#955
0'
04
#960
1'
14
#965
0'
04
#970
1'
14
#975
0'
04
#980
1'
14
#985
0'
04
#990
1'
14
#995
0'
04
#1000
1'
14
#1005
0'
04
#1010
1'
14
#1015
0'
04
#1020
1'
14
#1025
0'
04
#1030
1'
14
#1035
0'
04
#1040
1'
14
#1045
0'
04
#1050
1'
14
#1055
0'
04
#1060
1'
14
#1065
0'
04
#1070
1'
14
#1075
0'
04
#1080
1'
14
#1085
0'
04
#1090
1'
14
#1095
0'
04
#1100
1'
14
#1105
0'
04
#1110
1'
14
#1115
0'
04
#1120
1'
14
#1125
0'
04
#1130
1'
14
#1135
0'
04
#1140
1'
14
#1145
0'
04
#1150
1'
14
#1155
0'
04
#1160
1'
14
#1165
0'
04
#1170
1'
14
05
#1175
0'
04
#1180
1'
14
#1185
0'
04
#1190
1'
14
#1195
0'
04
#1200
1'
14
#1205
0'
04
#1210
1'
14
#1215
0'
04
#1220
1'
14
#1225
0'
04
#1230
1'
14
#1235
0'
04
#1240
1'
14
#1245
0'
04
#1250
1'
14
#1255
0'
04
#1260
1'
14
#1265
0'
04
#1270
1'
14
#1275
0'
04
#1280
1'
14
#1285
0'
04
#1290
1'
14
#1295
0'
04
#1300
1'
14
#1305
0'
04
#1310
1'
14
#1315
0'
04
#1320
1'
14
#1325
0'
04
#1330
1'
14
15
